{
	"@context": "http://madcat.dsg.tuwien.ac.at.io/",
	"@type": "DeploymentUnit",
	"name": "BMS/Unit",
	"technicalUnits": [
		{
			"name": "BMS/Unit"	
		}
	],
	"constraints": [
		{
			"hardware": [
				{
					"type": "Gateway",
					"os": "BusyBox",
					"capabilities": [
						{
							"name": "JRE",
							"version": "1.7"
						}
					],
					"memory": "1024m"
				}
			],
			"software": [
				{
					"replication": [
						{
							"min": "all"
						}
					]
				}
			]
		}
	],
	"steps": [
		{
			"step": 1,
			"tool": "LEONORE",
			"cmd": "curl http://leonore.ip:8080/"
		}
	]
}